…
``` r
transaction_data$DATE <- as.Date(transaction_data$DATE, origin = "1899-12-30")
```

We should also examine the product name to ensure we are looking at the
right products.

``` r
transaction_data %>%
  group_by(PROD_NAME) %>%
  summarise(count = n())
```

    ## # A tibble: 114 × 2
    ##    PROD_NAME                              count
    ##    <chr>                                  <int>
    ##  1 Burger Rings 220g                       1564
    ##  2 CCs Nacho Cheese    175g                1498
    ##  3 CCs Original 175g                       1514
    ##  4 CCs Tasty Cheese    175g                1539
    ##  5 Cheetos Chs & Bacon Balls 190g          1479
    ##  6 Cheetos Puffs 165g                      1448
    ##  7 Cheezels Cheese 330g                    3149
    ##  8 Cheezels Cheese Box 125g                1454
    ##  9 Cobs Popd Sea Salt  Chips 110g          3265
    ## 10 Cobs Popd Sour Crm  &Chives Chips 110g  3159
    ## # ℹ 104 more rows
…
``` r
productWords_1 <- productWords[!grepl("&",productWords$words),]
 productwords_new<- productWords_1[!grepl("[0-9]",productWords_1$words),]
```

Now we count the frequency of each words and then we sort.

``` r
productwords_new %>%
  group_by(words) %>%
  summarise(No_of_times = n()) %>%
  arrange(desc(No_of_times))
```

    ## # A tibble: 171 × 2
    ##    words    No_of_times
    ##    <chr>          <int>
    ##  1 Chips             21
    ##  2 Smiths            16
    ##  3 Crinkle           14
    ##  4 Cut               14
    ##  5 Kettle            13
    ##  6 Cheese            12
    ##  7 Salt              12
    ##  8 Original          10
    ##  9 Chip               9
    ## 10 Doritos            9
    ## # ℹ 161 more rows
…
## Analysing date column

Now we want to check the transaction lines over to observe if there are
any missing values.

``` r
transaction_data %>%
  group_by(DATE) %>%
  summarise(count = n())
```

    ## # A tibble: 364 × 2
    ##    DATE       count
    ##    <date>     <int>
    ##  1 2018-07-01   663
    ##  2 2018-07-02   650
    ##  3 2018-07-03   674
    ##  4 2018-07-04   669
    ##  5 2018-07-05   660
    ##  6 2018-07-06   711
    ##  7 2018-07-07   695
    ##  8 2018-07-08   653
    ##  9 2018-07-09   692
    ## 10 2018-07-10   650
    ## # ℹ 354 more rows
…
Now that we have proven that there no more Outlier in the data, we can
move to create other features such as pack size or brand name from
PROD_NAME. \## Creating Pack sizes column

``` r
## We start by creating pack sizes from PROD_NAME
transaction_data <- transaction_data %>%
  mutate(pack_size = parse_number(transaction_data$PROD_NAME))
## Ordering from to check if it makes sense
transaction_data %>%
  arrange(pack_size)
```

    ## # A tibble: 246,698 × 9
    ##    DATE       STORE_NBR LYLTY_CARD_NBR TXN_ID PROD_NBR PROD_NAME        PROD_QTY
    ##    <date>         <dbl>          <dbl>  <dbl>    <dbl> <chr>               <dbl>
    ##  1 2019-03-15         5           5091   4905       38 Infuzions Mango…        2
    ##  2 2018-08-01        10          10192  10175       38 Infuzions Mango…        2
    ##  3 2019-01-17        39          39134  35441       38 Infuzions Mango…        2
    ##  4 2018-08-21        39          39144  35500       38 Infuzions Mango…        2
    ##  5 2018-10-08        48          48009  43109       38 Infuzions Mango…        2
    ##  6 2019-02-05        55          55114  49137       38 Infuzions Mango…        2
    ##  7 2019-03-21        97          97089  96849       38 Infuzions Mango…        2
    ##  8 2019-04-10       128         128105 131225       38 Infuzions Mango…        2
    ##  9 2019-02-11       129         129136 133036       38 Infuzions Mango…        2
    ## 10 2019-06-22       129         129184 133337       38 Infuzions Mango…        2
    ## # ℹ 246,688 more rows
    ## # ℹ 2 more variables: TOT_SALES <dbl>, pack_size <dbl>

``` r
transaction_data %>%
  arrange(desc(pack_size))
```

    ## # A tibble: 246,698 × 9
    ##    DATE       STORE_NBR LYLTY_CARD_NBR TXN_ID PROD_NBR PROD_NAME        PROD_QTY
    ##    <date>         <dbl>          <dbl>  <dbl>    <dbl> <chr>               <dbl>
    ##  1 2019-05-20        55          55073  48887        4 Dorito Corn Chp…        1
    ##  2 2018-08-16        83          83186  83162        4 Dorito Corn Chp…        2
    ##  3 2019-05-14       130         130356 135147       14 Smiths Crnkle C…        2
    ##  4 2019-05-14       212         212203 211586        4 Dorito Corn Chp…        1
    ##  5 2019-05-19       257         257121 256483       14 Smiths Crnkle C…        1
    ##  6 2018-08-18       269         269175 266095        4 Dorito Corn Chp…        2
    ##  7 2018-11-03         3           3164   1779        4 Dorito Corn Chp…        2
    ##  8 2019-01-31         4           4072   2968       14 Smiths Crnkle C…        2
    ##  9 2018-12-12         4           4074   2980        4 Dorito Corn Chp…        2
    ## 10 2018-09-24         5           5050   4664        4 Dorito Corn Chp…        2
    ## # ℹ 246,688 more rows
    ## # ℹ 2 more variables: TOT_SALES <dbl>, pack_size <dbl>
…
## Creating brand name colum

Now we create brand name column from PROD_NAME

``` r
transaction_data$brand <- word(transaction_data$PROD_NAME, 1)
transaction_data %>%
  group_by(brand) %>%
  summarise(count = n()) %>%
  arrange(desc(count))
```

    ## # A tibble: 28 × 2
    ##    brand     count
    ##    <chr>     <int>
    ##  1 Kettle    41282
    ##  2 Smiths    27387
    ##  3 Pringles  25097
    ##  4 Doritos   22036
    ##  5 Thins     14074
    ##  6 RRD       11894
    ##  7 Infuzions 11054
    ##  8 WW        10320
    ##  9 Cobs       9688
    ## 10 Tostitos   9469
    ## # ℹ 18 more rows
…
